ApplicationMgr    SUCCESS
====================================================================================================================================
====================================================================================================================================
ApplicationMgr       INFO Application Manager Configured successfully
ToolSvc.GitOver...   INFO using checked out files in /home/sponce/dev4/LHCb/build.x86_64-centos7-gcc9-dbg/Kernel/LHCbAlgs/test/DQFLAGS
DetectorPersist...   INFO Added successfully Conversion service:XmlCnvSvc
DetectorDataSvc   SUCCESS Detector description database: git:/lhcb.xml
GaudiSequencer       INFO Member list: DQFilter
RndmGenSvc.Engine    INFO Generator engine type:CLHEP::RanluxEngine
RndmGenSvc.Engine    INFO Current Seed:1234567 Luxury:3
RndmGenSvc           INFO Using Random engine:HepRndm::Engine<CLHEP::RanluxEngine>
DQFilter          VERBOSE ServiceLocatorHelper::service: found service AlgContextSvc
DQFilter          VERBOSE ServiceLocatorHelper::service: found service EventDataSvc
DQFilter          VERBOSE ServiceLocatorHelper::service: found service TimelineSvc
DQFilter          VERBOSE ServiceLocatorHelper::service: found service EventDataSvc
DQFilter            DEBUG Initialize base class GaudiCommon<Algorithm>
DQFilter            DEBUG could not locate CounterSummarySvc, no counter summary will be made
DQFilter            DEBUG Property ['Name': Value] =  'AcceptTool':DQAcceptTool/DQAcceptTool
DQFilter            DEBUG Property ['Name': Value] =  'AuditExecute':False
DQFilter            DEBUG Property ['Name': Value] =  'AuditFinalize':False
DQFilter            DEBUG Property ['Name': Value] =  'AuditInitialize':False
DQFilter            DEBUG Property ['Name': Value] =  'AuditStart':False
DQFilter            DEBUG Property ['Name': Value] =  'AuditStop':False
DQFilter            DEBUG Property ['Name': Value] =  'Cardinality':0
DQFilter            DEBUG Property ['Name': Value] =  'Context':
DQFilter            DEBUG Property ['Name': Value] =  'CounterList':[ '.*' ]
DQFilter            DEBUG Property ['Name': Value] =  'EfficiencyRowFormat': |*%|-48.48s|%|50t||%|10d| |%|11.5g| |(%|#9.6g| +- %|-#9.6g|)%%|   -------   |   -------   |
DQFilter            DEBUG Property ['Name': Value] =  'Enable':True
DQFilter            DEBUG Property ['Name': Value] =  'ErrorMax':1
DQFilter            DEBUG Property ['Name': Value] =  'ErrorsPrint':True
DQFilter            DEBUG Property ['Name': Value] =  'MonitorService':MonitorSvc
DQFilter            DEBUG Property ['Name': Value] =  'NeededResources':[  ]
DQFilter            DEBUG Property ['Name': Value] =  'OutputLevel':1
DQFilter            DEBUG Property ['Name': Value] =  'PrintEmptyCounters':False
DQFilter            DEBUG Property ['Name': Value] =  'PropertiesPrint':False
DQFilter            DEBUG Property ['Name': Value] =  'RegisterForContextService':True
DQFilter            DEBUG Property ['Name': Value] =  'RegularRowFormat': | %|-48.48s|%|50t||%|10d| |%|11.7g| |%|#11.5g| |%|#11.5g| |%|#12.5g| |%|#12.5g| |
DQFilter            DEBUG Property ['Name': Value] =  'RequireObjects':[  ]
DQFilter            DEBUG Property ['Name': Value] =  'RootInTES':
DQFilter            DEBUG Property ['Name': Value] =  'StatEntityList':[  ]
DQFilter            DEBUG Property ['Name': Value] =  'StatTableHeader': |    Counter                                      |     #     |    sum     | mean/eff^* | rms/err^*  |     min     |     max     |
DQFilter            DEBUG Property ['Name': Value] =  'TypePrint':True
DQFilter            DEBUG Property ['Name': Value] =  'UseEfficiencyRowFormat':True
DQFilter            DEBUG Property ['Name': Value] =  'VetoObjects':[  ]
DQFilter            DEBUG DQFilter/DQFilter initialized:
DQFilter            DEBUG   filtering on execute
DQFilter            DEBUG   using DQAcceptTool
DQFilter            DEBUG input handles: 0
DQFilter            DEBUG output handles: 0
DQFilter.DQAcce...VERBOSE ServiceLocatorHelper::service: found service EventDataSvc
DQFilter.DQAcce...  DEBUG Initialize base class GaudiCommon<AlgTool>
DQFilter.DQAcce...  DEBUG could not locate CounterSummarySvc, no counter summary will be made
DQFilter.DQAcce...  DEBUG Property ['Name': Value] =  'AuditFinalize':False
DQFilter.DQAcce...  DEBUG Property ['Name': Value] =  'AuditInitialize':False
DQFilter.DQAcce...  DEBUG Property ['Name': Value] =  'AuditStart':False
DQFilter.DQAcce...  DEBUG Property ['Name': Value] =  'AuditStop':False
DQFilter.DQAcce...  DEBUG Property ['Name': Value] =  'ByRun':True
DQFilter.DQAcce...  DEBUG Property ['Name': Value] =  'ConditionPath':Conditions/Online/LHCb/RunParameters
DQFilter.DQAcce...  DEBUG Property ['Name': Value] =  'Context':
DQFilter.DQAcce...  DEBUG Property ['Name': Value] =  'ContextService':AlgContextSvc
DQFilter.DQAcce...  DEBUG Property ['Name': Value] =  'CounterList':[ '.*' ]
DQFilter.DQAcce...  DEBUG Property ['Name': Value] =  'EfficiencyRowFormat': |*%|-48.48s|%|50t||%|10d| |%|11.5g| |(%|#9.6g| +- %|-#9.6g|)%%|   -------   |   -------   |
DQFilter.DQAcce...  DEBUG Property ['Name': Value] =  'ErrorsPrint':True
DQFilter.DQAcce...  DEBUG Property ['Name': Value] =  'Filter':BasicDQFilter/Filter
DQFilter.DQAcce...  DEBUG Property ['Name': Value] =  'MonitorService':MonitorSvc
DQFilter.DQAcce...  DEBUG Property ['Name': Value] =  'OutputLevel':1
DQFilter.DQAcce...  DEBUG Property ['Name': Value] =  'PrintEmptyCounters':False
DQFilter.DQAcce...  DEBUG Property ['Name': Value] =  'PropertiesPrint':False
DQFilter.DQAcce...  DEBUG Property ['Name': Value] =  'RegularRowFormat': | %|-48.48s|%|50t||%|10d| |%|11.7g| |%|#11.5g| |%|#11.5g| |%|#12.5g| |%|#12.5g| |
DQFilter.DQAcce...  DEBUG Property ['Name': Value] =  'RootInTES':
DQFilter.DQAcce...  DEBUG Property ['Name': Value] =  'Scanner':CondDBDQScanner/Scanner
DQFilter.DQAcce...  DEBUG Property ['Name': Value] =  'StatEntityList':[  ]
DQFilter.DQAcce...  DEBUG Property ['Name': Value] =  'StatTableHeader': |    Counter                                      |     #     |    sum     | mean/eff^* | rms/err^*  |     min     |     max     |
DQFilter.DQAcce...  DEBUG Property ['Name': Value] =  'TypePrint':True
DQFilter.DQAcce...  DEBUG Property ['Name': Value] =  'UseEfficiencyRowFormat':True
DQFilter.DQAcce...VERBOSE ServiceLocatorHelper::service: found service ToolSvc
DQFilter.DQAcce...VERBOSE ServiceLocatorHelper::service: found service EventDataSvc
DQFilter.DQAcce...  DEBUG Initialize base class GaudiCommon<AlgTool>
DQFilter.DQAcce...  DEBUG could not locate CounterSummarySvc, no counter summary will be made
DQFilter.DQAcce...  DEBUG Property ['Name': Value] =  'AuditFinalize':False
DQFilter.DQAcce...  DEBUG Property ['Name': Value] =  'AuditInitialize':False
DQFilter.DQAcce...  DEBUG Property ['Name': Value] =  'AuditStart':False
DQFilter.DQAcce...  DEBUG Property ['Name': Value] =  'AuditStop':False
DQFilter.DQAcce...  DEBUG Property ['Name': Value] =  'Context':
DQFilter.DQAcce...  DEBUG Property ['Name': Value] =  'ContextService':AlgContextSvc
DQFilter.DQAcce...  DEBUG Property ['Name': Value] =  'CounterList':[ '.*' ]
DQFilter.DQAcce...  DEBUG Property ['Name': Value] =  'EfficiencyRowFormat': |*%|-48.48s|%|50t||%|10d| |%|11.5g| |(%|#9.6g| +- %|-#9.6g|)%%|   -------   |   -------   |
DQFilter.DQAcce...  DEBUG Property ['Name': Value] =  'ErrorsPrint':True
DQFilter.DQAcce...  DEBUG Property ['Name': Value] =  'IgnoredFlags':[ 'MyDet' , 'otherdet' ]
DQFilter.DQAcce...  DEBUG Property ['Name': Value] =  'MonitorService':MonitorSvc
DQFilter.DQAcce...  DEBUG Property ['Name': Value] =  'OutputLevel':1
DQFilter.DQAcce...  DEBUG Property ['Name': Value] =  'PrintEmptyCounters':False
DQFilter.DQAcce...  DEBUG Property ['Name': Value] =  'PropertiesPrint':False
DQFilter.DQAcce...  DEBUG Property ['Name': Value] =  'RegularRowFormat': | %|-48.48s|%|50t||%|10d| |%|11.7g| |%|#11.5g| |%|#11.5g| |%|#12.5g| |%|#12.5g| |
DQFilter.DQAcce...  DEBUG Property ['Name': Value] =  'RootInTES':
DQFilter.DQAcce...  DEBUG Property ['Name': Value] =  'StatEntityList':[  ]
DQFilter.DQAcce...  DEBUG Property ['Name': Value] =  'StatTableHeader': |    Counter                                      |     #     |    sum     | mean/eff^* | rms/err^*  |     min     |     max     |
DQFilter.DQAcce...  DEBUG Property ['Name': Value] =  'TypePrint':True
DQFilter.DQAcce...  DEBUG Property ['Name': Value] =  'UseEfficiencyRowFormat':True
DQFilter.DQAcce...  DEBUG Registering tool DQFilter.DQAcceptTool.Filter
DQFilter.DQAcce...VERBOSE ServiceLocatorHelper::service: found service EventDataSvc
DQFilter.DQAcce...  DEBUG Initialize base class GaudiCommon<AlgTool>
DQFilter.DQAcce...  DEBUG could not locate CounterSummarySvc, no counter summary will be made
DQFilter.DQAcce...  DEBUG Property ['Name': Value] =  'AuditFinalize':False
DQFilter.DQAcce...  DEBUG Property ['Name': Value] =  'AuditInitialize':False
DQFilter.DQAcce...  DEBUG Property ['Name': Value] =  'AuditStart':False
DQFilter.DQAcce...  DEBUG Property ['Name': Value] =  'AuditStop':False
DQFilter.DQAcce...  DEBUG Property ['Name': Value] =  'ConditionPath':/Conditions/DQ/Flags
DQFilter.DQAcce...  DEBUG Property ['Name': Value] =  'Context':
DQFilter.DQAcce...  DEBUG Property ['Name': Value] =  'ContextService':AlgContextSvc
DQFilter.DQAcce...  DEBUG Property ['Name': Value] =  'Converter':DetectorPersistencySvc
DQFilter.DQAcce...  DEBUG Property ['Name': Value] =  'CounterList':[ '.*' ]
DQFilter.DQAcce...  DEBUG Property ['Name': Value] =  'EfficiencyRowFormat': |*%|-48.48s|%|50t||%|10d| |%|11.5g| |(%|#9.6g| +- %|-#9.6g|)%%|   -------   |   -------   |
DQFilter.DQAcce...  DEBUG Property ['Name': Value] =  'ErrorsPrint':True
DQFilter.DQAcce...  DEBUG Property ['Name': Value] =  'MonitorService':MonitorSvc
DQFilter.DQAcce...  DEBUG Property ['Name': Value] =  'OutputLevel':1
DQFilter.DQAcce...  DEBUG Property ['Name': Value] =  'PrintEmptyCounters':False
DQFilter.DQAcce...  DEBUG Property ['Name': Value] =  'PropertiesPrint':False
DQFilter.DQAcce...  DEBUG Property ['Name': Value] =  'RegularRowFormat': | %|-48.48s|%|50t||%|10d| |%|11.7g| |%|#11.5g| |%|#11.5g| |%|#12.5g| |%|#12.5g| |
DQFilter.DQAcce...  DEBUG Property ['Name': Value] =  'RootInTES':
DQFilter.DQAcce...  DEBUG Property ['Name': Value] =  'StatEntityList':[  ]
DQFilter.DQAcce...  DEBUG Property ['Name': Value] =  'StatTableHeader': |    Counter                                      |     #     |    sum     | mean/eff^* | rms/err^*  |     min     |     max     |
DQFilter.DQAcce...  DEBUG Property ['Name': Value] =  'TypePrint':True
DQFilter.DQAcce...  DEBUG Property ['Name': Value] =  'UseEfficiencyRowFormat':True
DQFilter.DQAcce...VERBOSE ServiceLocatorHelper::service: found service DetectorPersistencySvc
DQFilter.DQAcce...  DEBUG Registering tool DQFilter.DQAcceptTool.Scanner
EventClockSvc.E...   INFO Event times generated from 4000000000 with steps of 5000000000
DQFilter.DQAcce...  DEBUG DQAcceptTool/DQFilter.DQAcceptTool initialized:
DQFilter.DQAcce...  DEBUG   using condition at 'Conditions/Online/LHCb/RunParameters' for run boundaries
DQFilter.DQAcce...  DEBUG   scanning flags with CondDBDQScanner/Scanner
DQFilter.DQAcce...  DEBUG   analyze flags with BasicDQFilter/Filter
DQFilter            DEBUG Adding private ToolHandle tool DQFilter.DQAcceptTool (DQAcceptTool)
DQFilter            DEBUG Data Deps for DQFilter
EventLoopMgr      WARNING Unable to locate service "EventSelector"
EventLoopMgr      WARNING No events will be processed from external input.
ApplicationMgr       INFO Application Manager Initialized successfully
ApplicationMgr       INFO Application Manager Started successfully
DQFilter.DQAcce...VERBOSE Updating Data Quality flags for run 1
DQFilter.DQAcce...VERBOSE ServiceLocatorHelper::service: found service DetectorDataSvc
DQFilter.DQAcce...VERBOSE -> {}
DQFilter          VERBOSE Filter event: good event
DQFilter.DQAcce...VERBOSE Updating Data Quality flags for run 2
DQFilter.DQAcce...VERBOSE -> {MyDet: 1, OtherDet: 1}
DQFilter.DQAcce...  DEBUG Ignoring flag: MyDet
DQFilter.DQAcce...  DEBUG Ignoring flag: OtherDet
DQFilter          VERBOSE Filter event: good event
DQFilter          VERBOSE Filter event: good event
DQFilter          VERBOSE Filter event: good event
DQFilter          VERBOSE Filter event: good event
DQFilter          VERBOSE Filter event: good event
DQFilter.DQAcce...VERBOSE Updating Data Quality flags for run 3
DQFilter.DQAcce...VERBOSE -> {OtherDet: 1}
DQFilter.DQAcce...  DEBUG Ignoring flag: OtherDet
DQFilter          VERBOSE Filter event: good event
DQFilter          VERBOSE Filter event: good event
DQFilter.DQAcce...VERBOSE Updating Data Quality flags for run 4
DQFilter.DQAcce...VERBOSE -> {}
DQFilter          VERBOSE Filter event: good event
DQFilter          VERBOSE Filter event: good event
ApplicationMgr       INFO Application Manager Stopped successfully
DQFilter            DEBUG Finalize base class GaudiAlgorithm
DQFilter            DEBUG Tools to release :
DQFilter            DEBUG Services to release :
EventLoopMgr         INFO Histograms converted successfully according to request.
ToolSvc              INFO Removing all tools created by ToolSvc
DQFilter.DQAcce...  DEBUG  ==> Finalize the base class GaudiTool
DQFilter.DQAcce...  DEBUG Tools to release :
DQFilter.DQAcce...  DEBUG Services to release :
DQFilter.DQAcce...  DEBUG  ==> Finalize the base class GaudiTool
DQFilter.DQAcce...  DEBUG Tools to release :
DQFilter.DQAcce...  DEBUG Services to release :
DQFilter.DQAcce...  DEBUG Releasing tool 'DQFilter.DQAcceptTool.Filter'
DQFilter.DQAcce...  DEBUG De-Registering tool DQFilter.DQAcceptTool.Filter
DQFilter.DQAcce...  DEBUG The tool 'DQFilter.DQAcceptTool.Filter' of type 'BasicDQFilter' is released
DQFilter.DQAcce...  DEBUG Releasing tool 'DQFilter.DQAcceptTool.Scanner'
DQFilter.DQAcce...  DEBUG De-Registering tool DQFilter.DQAcceptTool.Scanner
DQFilter.DQAcce...  DEBUG The tool 'DQFilter.DQAcceptTool.Scanner' of type 'CondDBDQScanner' is released
DQFilter.DQAcce...  DEBUG  ==> Finalize the base class GaudiTool
DQFilter.DQAcce...  DEBUG Tools to release :
DQFilter.DQAcce...  DEBUG Services to release :
DQFilter.DQAcce...  DEBUG Releasing service 'UpdateManagerSvc'
ApplicationMgr       INFO Application Manager Finalized successfully
ApplicationMgr       INFO Application Manager Terminated successfully
DQFilter             INFO Number of counters : 1
 |    Counter                                      |     #     |    sum     | mean/eff^* | rms/err^*  |     min     |     max     |
 | "efficiency"                                    |        10 |         10 |     1.0000 |
